Python/Instances/DSJC125.1.txt & 31 & 46 & 46 & 46 & 11153623 
 
Python/Instances/DSJC125.1.txt & 31 & 46 & 46 & 46 & 11064719 
 
Python/Instances/DSJC125.1.txt & 30 & 38 & 42 & 40 & 862085 
 
Python/Instances/DSJC125.5.txt & 9 & 11 & 12 & 11 & 186804 
 
Python/Instances/DSJC125.9.txt & 4 & 5 & 5 & 5 & 84296 
 
Python/Instances/DSJC250.1.txt & 39 & 45 & 51 & 48 & 5320307 
 
Python/Instances/DSJC250.5.txt & 10 & 12 & 13 & 12 & 899816 
 
Python/Instances/DSJC250.9.txt & 5 & 5 & 6 & 5 & 372755 
 
Python/Instances/DSJC125.1.txt & 30 & 34 & 36 & 35 & 395145 
 
Python/Instances/DSJC125.5.txt & 10 & 10 & 12 & 11 & 102858 
 
Python/Instances/DSJC125.9.txt & 4 & 5 & 5 & 5 & 41382 
 
Python/Instances/DSJC250.1.txt & 40 & 44 & 45 & 44 & 2459290 
 
Python/Instances/DSJC250.5.txt & 12 & 13 & 14 & 13 & 470565 
 
Python/Instances/DSJC250.9.txt & 5 & 5 & 5 & 5 & 173618 
 
Python/Instances/DSJC500.1.txt & 49 & 52 & 53 & 52 & 14556833 
 
Python/Instances/DSJC500.5.txt & 11 & 13 & 13 & 13 & 1947940 
 
Python/Instances/DSJC500.9.txt & 4 & 5 & 5 & 5 & 668817 
 
Python/Instances/DSJC1000.1.txt & 66 & 65 & 73 & 69 & 95164136 
 
Python/Instances/DSJC125.1.txt & 30 & 34 & 36 & 35 & 375676 
 
Python/Instances/DSJC125.5.txt & 11 & 12 & 12 & 12 & 93106 
 
Python/Instances/DSJC125.9.txt & 4 & 5 & 5 & 5 & 37384.5 
 
Python/Instances/DSJC250.1.txt & 40 & 44 & 45 & 44.5 & 2.32454e+06 
 
Python/Instances/DSJC250.5.txt & 12.5 & 13 & 14 & 13.5 & 444060 
 
Python/Instances/DSJC250.9.txt & 5 & 5 & 5 & 5 & 165664 
 
Python/Instances/DSJC125.1.txt & 30 & 34 & 36 & 35 & 375013 
 
Python/Instances/DSJC125.5.txt & 11 & 12 & 12 & 12 & 99219.5 
 
Python/Instances/DSJC125.9.txt & 4 & 5 & 5 & 5 & 36505 
 
Python/Instances/DSJC250.1.txt & 40 & 44 & 45 & 44.5 & 2.3559e+06 
 
Python/Instances/DSJC250.5.txt & 12.5 & 13 & 14 & 13.5 & 440036 
 
Python/Instances/DSJC250.9.txt & 5 & 5 & 5 & 5 & 160762 
 
Python/Instances/DSJC125.1.txt & 30 & 34 & 36 & 35 & 375492 
 
Python/Instances/DSJC125.5.txt & 11 & 12 & 12 & 12 & 100250 
 
Python/Instances/DSJC125.9.txt & 4 & 5 & 5 & 5 & 38099 
 
Python/Instances/DSJC250.1.txt & 40 & 44 & 45 & 44.5 & 2.42293e+06 
 
Python/Instances/DSJC250.5.txt & 12.5 & 13 & 14 & 13.5 & 443732 
 
Python/Instances/DSJC250.9.txt & 5 & 5 & 5 & 5 & 165530 
 
Python/Instances/DSJC125.1.txt & 30 & 34 & 36 & 35 & 382441 
 
Python/Instances/DSJC125.5.txt & 11 & 12 & 12 & 12 & 98217 
 
Python/Instances/DSJC125.9.txt & 4 & 5 & 5 & 5 & 41802.5 
 
Python/Instances/DSJC250.1.txt & 40 & 44 & 45 & 44.5 & 2.34763e+06 
 
Python/Instances/DSJC250.5.txt & 12.5 & 13 & 14 & 13.5 & 435503 
 
Python/Instances/DSJC250.9.txt & 5 & 5 & 5 & 5 & 163946 
 
Python/Instances/DSJC125.1.txt & 30 & 34 & 36 & 35 & 372201 
 
Python/Instances/DSJC125.5.txt & 10 & 10 & 12 & 11 & 93082 
 
Python/Instances/DSJC125.9.txt & 4 & 5 & 5 & 5 & 39266 
 
Python/Instances/DSJC250.1.txt & 40 & 44 & 45 & 44.5 & 2.3621e+06 




===============================================================================================================
 
Python/Instances/DSJC250.5.txt & 12.5 & 13 & 14 & 13.5 & 438068 
 
Python/Instances/DSJC250.9.txt & 5 & 5 & 5 & 5 & 162942 
 
Python/Instances/DSJC125.1.txt & 33.8 & 46 & 49 & 47.8 & 1.10471e+08 
 
 
 ===============================================================================================================
Python/Instances/DSJC125.1.txt & 33.8 & 46 & 49 & 47.8 & 9.00672e+07 
 
Python/Instances/DSJC125.5.txt & 9.4 & 13 & 14 & 13.2 & 4.96431e+07 
 
iteration = 10; repetition = 2
Python/Instances/DSJC125.5.txt & 10 & 10 & 12 & 11 & 154852 
 
